<?xml version="1.0" standalone="no"?>
<!DOCTYPE svg PUBLIC "-//W3C//DTD SVG 20010904//EN"
 "http://www.w3.org/TR/2001/REC-SVG-20010904/DTD/svg10.dtd">
<svg version="1.0" xmlns="http://www.w3.org/2000/svg"
 width="180.000000pt" height="180.000000pt" viewBox="0 0 180.000000 180.000000"
 preserveAspectRatio="xMidYMid meet">
<metadata>
Created by potrace 1.11, written by Peter Selinger 2001-2013
</metadata>
<g transform="translate(0.000000,180.000000) scale(0.100000,-0.100000)"
fill="#000000" stroke="none">
<path d="M604 1584 c-40 -85 -74 -157 -74 -159 0 -3 -36 -85 -80 -180 -11 -22
-43 -97 -73 -166 l-54 -126 107 1 106 1 70 55 c38 30 75 60 82 68 8 7 29 24
47 37 25 19 40 47 65 113 18 48 41 105 50 127 10 22 25 57 33 78 9 20 20 37
24 37 9 0 63 -113 63 -131 0 -19 22 -7 93 46 39 31 97 67 127 82 30 14 56 27
58 28 2 1 -23 57 -54 124 l-57 121 -229 0 -229 0 -75 -156z"/>
<path d="M1253 1410 c-29 -10 -67 -29 -85 -41 -35 -25 -170 -129 -178 -138 -3
-4 -32 -28 -65 -55 -33 -27 -64 -54 -70 -60 -5 -6 -28 -24 -50 -40 -22 -17
-42 -33 -45 -36 -3 -3 -43 -37 -90 -75 -53 -44 -99 -73 -125 -80 -23 -5 -145
-10 -278 -9 -130 0 -237 -1 -237 -3 0 -19 38 -85 63 -111 42 -44 80 -64 149
-76 l58 -11 -55 -58 c-30 -32 -55 -59 -55 -61 0 -6 534 1 560 8 14 4 36 8 50
11 56 9 190 63 190 77 0 4 5 8 11 8 27 0 139 104 186 173 26 38 50 50 39 20
-41 -109 -177 -252 -287 -303 l-76 -34 19 -51 c10 -27 22 -57 25 -65 3 -8 7
-17 8 -20 6 -25 18 -59 25 -75 5 -11 28 -73 51 -137 l42 -118 43 0 42 0 -13
43 c-7 23 -38 110 -68 192 -73 200 -73 187 -12 192 72 5 162 29 225 61 77 38
170 133 213 217 33 66 91 220 101 268 3 12 14 64 25 115 18 86 34 117 64 123
16 3 24 6 67 27 50 23 46 25 -62 24 -53 0 -59 3 -101 43 -77 73 -195 95 -304
55z m195 -112 c28 -28 1 -75 -37 -63 -22 7 -33 28 -25 49 5 13 16 19 45 25 3
0 10 -4 17 -11z"/>
<path d="M1500 669 c-40 -71 -115 -143 -193 -187 l-55 -31 63 -173 c35 -95 68
-185 73 -199 l10 -26 201 -2 200 -2 -39 109 c-32 90 -100 274 -198 530 -9 23
-19 42 -22 42 -3 0 -21 -28 -40 -61z"/>
<path d="M150 455 c-39 -105 -105 -295 -126 -362 l-13 -42 203 1 203 0 66 208
c37 115 67 210 67 212 0 2 -88 3 -196 3 -187 0 -197 -1 -204 -20z"/>
<path d="M1118 413 c-16 -2 -28 -8 -28 -13 0 -4 13 -44 29 -87 16 -43 44 -119
62 -169 l32 -92 44 0 c52 -1 55 -25 -27 203 -35 97 -63 160 -71 161 -8 1 -26
-1 -41 -3z"/>
</g>
</svg>
